…
<img src="visualizacoes_files/figure-gfm/unnamed-chunk-14-1.png" style="display: block; margin: auto;" />

## Frequencia dos termos segundo o resultado das eleições

``` r
pr %>% 
  filter(ds_situacao == "2º turno") %>% 
  filter(transparencia > 0)
#> # A tibble: 94 x 21
#>     index sg_uf nm_ue sg_partido nm_urna_candida~ texto_tidy transparencia
#>     <dbl> <chr> <chr> <chr>      <chr>            <chr>              <dbl>
#>  1 433444 GO    ANÁP~ PP         ROBERTO NAVES    "\"o dese~             4
#>  2  10495 SE    ARAC~ CIDADANIA  DELEGADA DANIEL~ "este foi~            13
#>  3 526238 SE    ARAC~ PDT        EDVALDO          "este doc~            10
#>  4  39603 SP    BAURU PATRIOTA   SUÉLLEN ROSIM    "plano de~             2
#>  5 342679 SP    BAURU DEM        DR RAUL          "plano de~             3
#>  6 373188 PA    BELÉM PATRIOTA   DELEGADO FEDERA~ "sumario ~            11
#>  7 534663 PA    BELÉM PSOL       EDMILSON RODRIG~ "elei coe~             3
#>  8 353755 SC    BLUM~ PODE       MÁRIO HILDEBRAN~ "1 progra~             5
#>  9 506070 SC    BLUM~ DEM        JOÃO PAULO KLEI~ "pae nº 3~             1
#> 10 403012 RR    BOA ~ SOLIDARIE~ OTTACI           "plano de~             4
#> # ... with 84 more rows, and 14 more variables: corrupcao <dbl>,
#> #   integridade <dbl>, governo_aberto <dbl>, acesso_a_informacao <dbl>,
#> #   controle_social <dbl>, dados_abertos <dbl>, sg_ue <dbl>,
#> #   sq_candidato <dbl>, ds_situacao <chr>, qt_votos_candidato <dbl>,
#> #   qt_votos_computados <dbl>, qt_votos_brancos <dbl>, qt_votos_nulos <dbl>,
#> #   pr_votos_candidato <dbl>
…
