…
map(partidos, topic_model_partido) %>% set_names(partidos)
#> $PP
#> $PP$propostas_dtm
#> <<DocumentTermMatrix (documents: 571, terms: 28519)>>
#> Non-/sparse entries: 470313/15814036
#> Sparsity           : 97%
#> Maximal term length: 20
#> Weighting          : term frequency (tf)
#> 
#> $PP$propostas_lda
#> A LDA_VEM topic model with 5 topics.
#> 
#> $PP$propostas_topics
#> # A tibble: 142,595 x 3
#>    topic term         beta
#>    <int> <chr>       <dbl>
#>  1     1 saude    8.11e- 3
#>  2     2 saude    1.02e- 2
#>  3     3 saude    5.26e- 3
#>  4     4 saude    1.29e- 2
#>  5     5 saude    8.87e- 3
#>  6     1 londrina 2.72e-71
#>  7     2 londrina 2.52e-40
#>  8     3 londrina 9.90e- 6
#>  9     4 londrina 5.50e-64
#> 10     5 londrina 1.21e- 3
#> # ... with 142,585 more rows
#> 
#> $PP$top_terms
#> # A tibble: 50 x 3
#>    topic term          beta
#>    <int> <chr>        <dbl>
#>  1     1 governo    0.00885
#>  2     1 saude      0.00811
#>  3     1 educacao   0.00665
#>  4     1 plano      0.00629
#>  5     1 social     0.00528
#>  6     1 prefeito   0.00468
#>  7     1 coligacao  0.00468
#>  8     1 construcao 0.00467
#>  9     1 acoes      0.00462
#> 10     1 criar      0.00445
#> # ... with 40 more rows
…
    #> 
    #> 
    #> $DEM
    #> $DEM$propostas_dtm
    #> <<DocumentTermMatrix (documents: 380, terms: 26509)>>
    #> Non-/sparse entries: 345754/9727666
    #> Sparsity           : 97%
    #> Maximal term length: 20
    #> Weighting          : term frequency (tf)
    #> 
    #> $DEM$propostas_lda
    #> A LDA_VEM topic model with 5 topics.
    #> 
    #> $DEM$propostas_topics
    #> # A tibble: 132,545 x 3
    #>    topic term         beta
    #>    <int> <chr>       <dbl>
    #>  1     1 acoes    7.91e- 3
    #>  2     2 acoes    5.98e- 3
    #>  3     3 acoes    9.81e- 3
    #>  4     4 acoes    3.48e- 3
    #>  5     5 acoes    3.69e- 3
    #>  6     1 salvador 1.37e-16
    #>  7     2 salvador 8.63e- 5
    #>  8     3 salvador 2.50e- 3
    #>  9     4 salvador 6.61e-15
    #> 10     5 salvador 1.15e-15
    #> # ... with 132,535 more rows
    #> 
    #> $DEM$top_terms
    #> # A tibble: 50 x 3
    #>    topic term               beta
    #>    <int> <chr>             <dbl>
    #>  1     1 saude           0.0110 
    #>  2     1 acoes           0.00791
    #>  3     1 educacao        0.00783
    #>  4     1 social          0.00701
    #>  5     1 governo         0.00626
    #>  6     1 desenvolvimento 0.00619
    #>  7     1 plano           0.00562
    #>  8     1 ampliar         0.00561
    #>  9     1 atendimento     0.00548
    #> 10     1 programa        0.00540
    #> # ... with 40 more rows
…
    #> 
    #> 
    #> $PSDB
    #> $PSDB$propostas_dtm
    #> <<DocumentTermMatrix (documents: 431, terms: 28887)>>
    #> Non-/sparse entries: 395850/12054447
    #> Sparsity           : 97%
    #> Maximal term length: 20
    #> Weighting          : term frequency (tf)
    #> 
    #> $PSDB$propostas_lda
    #> A LDA_VEM topic model with 5 topics.
    #> 
    #> $PSDB$propostas_topics
    #> # A tibble: 144,435 x 3
    #>    topic term         beta
    #>    <int> <chr>       <dbl>
    #>  1     1 santos  0.00812  
    #>  2     2 santos  0.000112 
    #>  3     3 santos  0.0000251
    #>  4     4 santos  0.00124  
    #>  5     5 santos  0.0000899
    #>  6     1 central 0.00595  
    #>  7     2 central 0.000395 
    #>  8     3 central 0.000521 
    #>  9     4 central 0.000795 
    #> 10     5 central 0.000765 
    #> # ... with 144,425 more rows
    #> 
    #> $PSDB$top_terms
    #> # A tibble: 50 x 3
    #>    topic term         beta
    #>    <int> <chr>       <dbl>
    #>  1     1 santos    0.00812
    #>  2     1 area      0.00679
    #>  3     1 zona      0.00652
    #>  4     1 central   0.00595
    #>  5     1 saude     0.00536
    #>  6     1 historica 0.00520
    #>  7     1 orla      0.00519
    #>  8     1 social    0.00519
    #>  9     1 gestao    0.00517
    #> 10     1 noroeste  0.00507
    #> # ... with 40 more rows
…
    #> 
    #> 
    #> $PT
    #> $PT$propostas_dtm
    #> <<DocumentTermMatrix (documents: 160, terms: 18218)>>
    #> Non-/sparse entries: 151237/2763643
    #> Sparsity           : 95%
    #> Maximal term length: 20
    #> Weighting          : term frequency (tf)
    #> 
    #> $PT$propostas_lda
    #> A LDA_VEM topic model with 5 topics.
    #> 
    #> $PT$propostas_topics
    #> # A tibble: 91,090 x 3
    #>    topic term        beta
    #>    <int> <chr>      <dbl>
    #>  1     1 acoes    0.00659
    #>  2     2 acoes    0.00456
    #>  3     3 acoes    0.00771
    #>  4     4 acoes    0.00618
    #>  5     5 acoes    0.00574
    #>  6     1 educacao 0.00901
    #>  7     2 educacao 0.00605
    #>  8     3 educacao 0.00583
    #>  9     4 educacao 0.00789
    #> 10     5 educacao 0.00602
    #> # ... with 91,080 more rows
    #> 
    #> $PT$top_terms
    #> # A tibble: 50 x 3
    #>    topic term           beta
    #>    <int> <chr>         <dbl>
    #>  1     1 saude       0.0101 
    #>  2     1 educacao    0.00901
    #>  3     1 social      0.00807
    #>  4     1 acoes       0.00659
    #>  5     1 programa    0.00634
    #>  6     1 governo     0.00615
    #>  7     1 atendimento 0.00577
    #>  8     1 criar       0.00562
    #>  9     1 servicos    0.00465
    #> 10     1 populacao   0.00460
    #> # ... with 40 more rows
…
    #> 
    #> 
    #> $PDT
    #> $PDT$propostas_dtm
    #> <<DocumentTermMatrix (documents: 274, terms: 21270)>>
    #> Non-/sparse entries: 235001/5592979
    #> Sparsity           : 96%
    #> Maximal term length: 20
    #> Weighting          : term frequency (tf)
    #> 
    #> $PDT$propostas_lda
    #> A LDA_VEM topic model with 5 topics.
    #> 
    #> $PDT$propostas_topics
    #> # A tibble: 106,350 x 3
    #>    topic term         beta
    #>    <int> <chr>       <dbl>
    #>  1     1 saude    1.22e- 2
    #>  2     2 saude    8.59e- 3
    #>  3     3 saude    1.21e- 2
    #>  4     4 saude    7.27e- 3
    #>  5     5 saude    7.33e- 3
    #>  6     1 redencao 5.36e-38
    #>  7     2 redencao 2.87e-93
    #>  8     3 redencao 5.19e-12
    #>  9     4 redencao 1.03e- 3
    #> 10     5 redencao 7.40e-91
    #> # ... with 106,340 more rows
    #> 
    #> $PDT$top_terms
    #> # A tibble: 50 x 3
    #>    topic term           beta
    #>    <int> <chr>         <dbl>
    #>  1     1 saude       0.0122 
    #>  2     1 atendimento 0.00703
    #>  3     1 ampliar     0.00702
    #>  4     1 construcao  0.00636
    #>  5     1 educacao    0.00629
    #>  6     1 programa    0.00628
    #>  7     1 acoes       0.00586
    #>  8     1 manter      0.00550
    #>  9     1 social      0.00522
    #> 10     1 criacao     0.00483
    #> # ... with 40 more rows
…
    #> 
    #> 
    #> $MDB
    #> $MDB$propostas_dtm
    #> <<DocumentTermMatrix (documents: 668, terms: 31398)>>
    #> Non-/sparse entries: 557438/20416426
    #> Sparsity           : 97%
    #> Maximal term length: 20
    #> Weighting          : term frequency (tf)
    #> 
    #> $MDB$propostas_lda
    #> A LDA_VEM topic model with 5 topics.
    #> 
    #> $MDB$propostas_topics
    #> # A tibble: 156,990 x 3
    #>    topic term         beta
    #>    <int> <chr>       <dbl>
    #>  1     1 teresina 5.91e-16
    #>  2     2 teresina 2.00e- 5
    #>  3     3 teresina 4.44e- 3
    #>  4     4 teresina 1.24e-16
    #>  5     5 teresina 1.98e-37
    #>  6     1 saude    6.91e- 3
    #>  7     2 saude    7.61e- 3
    #>  8     3 saude    8.76e- 3
    #>  9     4 saude    1.29e- 2
    #> 10     5 saude    9.08e- 3
    #> # ... with 156,980 more rows
    #> 
    #> $MDB$top_terms
    #> # A tibble: 50 x 3
    #>    topic term               beta
    #>    <int> <chr>             <dbl>
    #>  1     1 desenvolvimento 0.00837
    #>  2     1 acoes           0.00828
    #>  3     1 gestao          0.00780
    #>  4     1 governo         0.00742
    #>  5     1 saude           0.00691
    #>  6     1 social          0.00640
    #>  7     1 populacao       0.00574
    #>  8     1 plano           0.00560
    #>  9     1 educacao        0.00537
    #> 10     1 qualidade       0.00521
    #> # ... with 40 more rows
…
    #> 
    #> 
    #> $PL
    #> $PL$propostas_dtm
    #> <<DocumentTermMatrix (documents: 287, terms: 21238)>>
    #> Non-/sparse entries: 244418/5850888
    #> Sparsity           : 96%
    #> Maximal term length: 20
    #> Weighting          : term frequency (tf)
    #> 
    #> $PL$propostas_lda
    #> A LDA_VEM topic model with 5 topics.
    #> 
    #> $PL$propostas_topics
    #> # A tibble: 106,190 x 3
    #>    topic term        beta
    #>    <int> <chr>      <dbl>
    #>  1     1 dr     7.54e-  3
    #>  2     2 dr     2.08e-  5
    #>  3     3 dr     1.97e-  4
    #>  4     4 dr     4.25e-  5
    #>  5     5 dr     4.54e-  5
    #>  6     1 moacir 6.78e-  3
    #>  7     2 moacir 2.02e- 25
    #>  8     3 moacir 8.59e- 34
    #>  9     4 moacir 3.48e-100
    #> 10     5 moacir 4.13e- 43
    #> # ... with 106,180 more rows
    #> 
    #> $PL$top_terms
    #> # A tibble: 50 x 3
    #>    topic term          beta
    #>    <int> <chr>        <dbl>
    #>  1     1 programa   0.00977
    #>  2     1 saude      0.00800
    #>  3     1 educacao   0.00758
    #>  4     1 dr         0.00754
    #>  5     1 acoes      0.00712
    #>  6     1 moacir     0.00678
    #>  7     1 social     0.00671
    #>  8     1 servicos   0.00566
    #>  9     1 construcao 0.00544
    #> 10     1 manutencao 0.00513
    #> # ... with 40 more rows
…
    #> 
    #> 
    #> $PSL
    #> $PSL$propostas_dtm
    #> <<DocumentTermMatrix (documents: 81, terms: 11602)>>
    #> Non-/sparse entries: 63586/876176
    #> Sparsity           : 93%
    #> Maximal term length: 20
    #> Weighting          : term frequency (tf)
    #> 
    #> $PSL$propostas_lda
    #> A LDA_VEM topic model with 5 topics.
    #> 
    #> $PSL$propostas_topics
    #> # A tibble: 58,010 x 3
    #>    topic term        beta
    #>    <int> <chr>      <dbl>
    #>  1     1 programa 0.00643
    #>  2     2 programa 0.00547
    #>  3     3 programa 0.00443
    #>  4     4 programa 0.00915
    #>  5     5 programa 0.00844
    #>  6     1 saude    0.00824
    #>  7     2 saude    0.0105 
    #>  8     3 saude    0.00745
    #>  9     4 saude    0.0114 
    #> 10     5 saude    0.00933
    #> # ... with 58,000 more rows
    #> 
    #> $PSL$top_terms
    #> # A tibble: 50 x 3
    #>    topic term               beta
    #>    <int> <chr>             <dbl>
    #>  1     1 saude           0.00824
    #>  2     1 educacao        0.00644
    #>  3     1 programa        0.00643
    #>  4     1 governo         0.00563
    #>  5     1 desenvolvimento 0.00552
    #>  6     1 gestao          0.00520
    #>  7     1 implantacao     0.00503
    #>  8     1 social          0.00467
    #>  9     1 plano           0.00447
    #> 10     1 criacao         0.00429
    #> # ... with 40 more rows
…
    #> 
    #> 
    #> $REPUBLICANOS
    #> $REPUBLICANOS$propostas_dtm
    #> <<DocumentTermMatrix (documents: 179, terms: 18939)>>
    #> Non-/sparse entries: 169762/3220319
    #> Sparsity           : 95%
    #> Maximal term length: 20
    #> Weighting          : term frequency (tf)
    #> 
    #> $REPUBLICANOS$propostas_lda
    #> A LDA_VEM topic model with 5 topics.
    #> 
    #> $REPUBLICANOS$propostas_topics
    #> # A tibble: 94,695 x 3
    #>    topic term                beta
    #>    <int> <chr>              <dbl>
    #>  1     1 desenvolvimento 4.34e- 3
    #>  2     2 desenvolvimento 7.84e- 3
    #>  3     3 desenvolvimento 5.33e- 3
    #>  4     4 desenvolvimento 2.60e- 3
    #>  5     5 desenvolvimento 6.33e- 3
    #>  6     1 ods             5.95e-15
    #>  7     2 ods             4.00e- 3
    #>  8     3 ods             3.28e-26
    #>  9     4 ods             1.28e-13
    #> 10     5 ods             4.47e- 5
    #> # ... with 94,685 more rows
    #> 
    #> $REPUBLICANOS$top_terms
    #> # A tibble: 50 x 3
    #>    topic term        beta
    #>    <int> <chr>      <dbl>
    #>  1     1 saude    0.0116 
    #>  2     1 educacao 0.00729
    #>  3     1 programa 0.00701
    #>  4     1 social   0.00655
    #>  5     1 acoes    0.00624
    #>  6     1 gestao   0.00547
    #>  7     1 servicos 0.00540
    #>  8     1 criar    0.00540
    #>  9     1 plano    0.00488
    #> 10     1 governo  0.00480
    #> # ... with 40 more rows
…
    #> 
    #> 
    #> $PSB
    #> $PSB$propostas_dtm
    #> <<DocumentTermMatrix (documents: 213, terms: 19397)>>
    #> Non-/sparse entries: 184861/3946700
    #> Sparsity           : 96%
    #> Maximal term length: 20
    #> Weighting          : term frequency (tf)
    #> 
    #> $PSB$propostas_lda
    #> A LDA_VEM topic model with 5 topics.
    #> 
    #> $PSB$propostas_topics
    #> # A tibble: 96,985 x 3
    #>    topic term           beta
    #>    <int> <chr>         <dbl>
    #>  1     1 afogados  2.22e-  3
    #>  2     2 afogados  6.82e-103
    #>  3     3 afogados  1.70e- 21
    #>  4     4 afogados  5.26e- 99
    #>  5     5 afogados  8.19e- 71
    #>  6     1 ingazeira 2.66e-  3
    #>  7     2 ingazeira 8.52e- 96
    #>  8     3 ingazeira 1.43e-  5
    #>  9     4 ingazeira 8.19e- 94
    #> 10     5 ingazeira 2.38e- 69
    #> # ... with 96,975 more rows
    #> 
    #> $PSB$top_terms
    #> # A tibble: 50 x 3
    #>    topic term           beta
    #>    <int> <chr>         <dbl>
    #>  1     1 programa    0.00756
    #>  2     1 construcao  0.00695
    #>  3     1 saude       0.00688
    #>  4     1 atendimento 0.00530
    #>  5     1 educacao    0.00507
    #>  6     1 ampliar     0.00507
    #>  7     1 criacao     0.00498
    #>  8     1 ampliacao   0.00478
    #>  9     1 implantacao 0.00443
    #> 10     1 acoes       0.00433
    #> # ... with 40 more rows
…
    #> 
    #> 
    #> $SOLIDARIEDADE
    #> $SOLIDARIEDADE$propostas_dtm
    #> <<DocumentTermMatrix (documents: 84, terms: 12913)>>
    #> Non-/sparse entries: 77250/1007442
    #> Sparsity           : 93%
    #> Maximal term length: 20
    #> Weighting          : term frequency (tf)
    #> 
    #> $SOLIDARIEDADE$propostas_lda
    #> A LDA_VEM topic model with 5 topics.
    #> 
    #> $SOLIDARIEDADE$propostas_topics
    #> # A tibble: 64,565 x 3
    #>    topic term          beta
    #>    <int> <chr>        <dbl>
    #>  1     1 mansidao 2.77e-215
    #>  2     2 mansidao 5.84e-207
    #>  3     3 mansidao 1.91e-  3
    #>  4     4 mansidao 1.01e-208
    #>  5     5 mansidao 9.26e-214
    #>  6     1 ifz      5.90e-196
    #>  7     2 ifz      3.30e-204
    #>  8     3 ifz      5.23e-202
    #>  9     4 ifz      1.79e-  3
    #> 10     5 ifz      7.63e-202
    #> # ... with 64,555 more rows
    #> 
    #> $SOLIDARIEDADE$top_terms
    #> # A tibble: 50 x 3
    #>    topic term           beta
    #>    <int> <chr>         <dbl>
    #>  1     1 saude       0.0102 
    #>  2     1 educacao    0.00641
    #>  3     1 criacao     0.00570
    #>  4     1 social      0.00544
    #>  5     1 atendimento 0.00478
    #>  6     1 garantir    0.00456
    #>  7     1 populacao   0.00438
    #>  8     1 programa    0.00435
    #>  9     1 acoes       0.00415
    #> 10     1 governo     0.00414
    #> # ... with 40 more rows
…
    #> 
    #> 
    #> $PSD
    #> $PSD$propostas_dtm
    #> <<DocumentTermMatrix (documents: 549, terms: 28706)>>
    #> Non-/sparse entries: 470083/15289511
    #> Sparsity           : 97%
    #> Maximal term length: 20
    #> Weighting          : term frequency (tf)
    #> 
    #> $PSD$propostas_lda
    #> A LDA_VEM topic model with 5 topics.
    #> 
    #> $PSD$propostas_topics
    #> # A tibble: 143,530 x 3
    #>    topic term         beta
    #>    <int> <chr>       <dbl>
    #>  1     1 proposta 0.000183
    #>  2     2 proposta 0.000900
    #>  3     3 proposta 0.00290 
    #>  4     4 proposta 0.000337
    #>  5     5 proposta 0.000900
    #>  6     1 saude    0.0107  
    #>  7     2 saude    0.00975 
    #>  8     3 saude    0.00525 
    #>  9     4 saude    0.00639 
    #> 10     5 saude    0.0119  
    #> # ... with 143,520 more rows
    #> 
    #> $PSD$top_terms
    #> # A tibble: 50 x 3
    #>    topic term           beta
    #>    <int> <chr>         <dbl>
    #>  1     1 saude       0.0107 
    #>  2     1 programa    0.00814
    #>  3     1 atendimento 0.00739
    #>  4     1 construcao  0.00734
    #>  5     1 educacao    0.00558
    #>  6     1 apoio       0.00537
    #>  7     1 ampliar     0.00524
    #>  8     1 manter      0.00504
    #>  9     1 criacao     0.00497
    #> 10     1 ampliacao   0.00489
    #> # ... with 40 more rows
…
    #> 
    #> 
    #> $PODE
    #> $PODE$propostas_dtm
    #> <<DocumentTermMatrix (documents: 96, terms: 15235)>>
    #> Non-/sparse entries: 91555/1371005
    #> Sparsity           : 94%
    #> Maximal term length: 20
    #> Weighting          : term frequency (tf)
    #> 
    #> $PODE$propostas_lda
    #> A LDA_VEM topic model with 5 topics.
    #> 
    #> $PODE$propostas_topics
    #> # A tibble: 76,175 x 3
    #>    topic term        beta
    #>    <int> <chr>      <dbl>
    #>  1     1 osasco 2.78e-143
    #>  2     2 osasco 6.66e- 77
    #>  3     3 osasco 1.75e-142
    #>  4     4 osasco 3.65e-  3
    #>  5     5 osasco 3.58e-151
    #>  6     1 social 5.64e-  3
    #>  7     2 social 5.54e-  3
    #>  8     3 social 4.33e-  3
    #>  9     4 social 5.46e-  3
    #> 10     5 social 3.55e-  3
    #> # ... with 76,165 more rows
    #> 
    #> $PODE$top_terms
    #> # A tibble: 50 x 3
    #>    topic term           beta
    #>    <int> <chr>         <dbl>
    #>  1     1 saude       0.00863
    #>  2     1 plano       0.00666
    #>  3     1 governo     0.00642
    #>  4     1 educacao    0.00641
    #>  5     1 social      0.00564
    #>  6     1 programa    0.00509
    #>  7     1 criar       0.00501
    #>  8     1 atendimento 0.00487
    #>  9     1 promover    0.00481
    #> 10     1 ampliar     0.00469
    #> # ... with 40 more rows
…
    #> 
    #> 
    #> $PSC
    #> $PSC$propostas_dtm
    #> <<DocumentTermMatrix (documents: 93, terms: 13119)>>
    #> Non-/sparse entries: 77346/1142721
    #> Sparsity           : 94%
    #> Maximal term length: 20
    #> Weighting          : term frequency (tf)
    #> 
    #> $PSC$propostas_lda
    #> A LDA_VEM topic model with 5 topics.
    #> 
    #> $PSC$propostas_topics
    #> # A tibble: 65,595 x 3
    #>    topic term                beta
    #>    <int> <chr>              <dbl>
    #>  1     1 proposta        0.000953
    #>  2     2 proposta        0.00112 
    #>  3     3 proposta        0.00435 
    #>  4     4 proposta        0.000105
    #>  5     5 proposta        0.000131
    #>  6     1 desenvolvimento 0.00304 
    #>  7     2 desenvolvimento 0.00360 
    #>  8     3 desenvolvimento 0.00376 
    #>  9     4 desenvolvimento 0.00871 
    #> 10     5 desenvolvimento 0.00240 
    #> # ... with 65,585 more rows
    #> 
    #> $PSC$top_terms
    #> # A tibble: 50 x 3
    #>    topic term           beta
    #>    <int> <chr>         <dbl>
    #>  1     1 saude       0.00940
    #>  2     1 construcao  0.00605
    #>  3     1 governo     0.00540
    #>  4     1 criacao     0.00539
    #>  5     1 social      0.00508
    #>  6     1 atendimento 0.00481
    #>  7     1 plano       0.00466
    #>  8     1 populacao   0.00456
    #>  9     1 educacao    0.00453
    #> 10     1 programa    0.00442
    #> # ... with 40 more rows
…
